.......
----------------------------------------------------------------------
Ran 7 tests in 0.001s

OK
Name               Stmts   Miss Branch BrPart  Cover   Missing
--------------------------------------------------------------
Diplomacy.py          47      0     36      0   100%
TestDiplomacy.py      42      0      2      0   100%
--------------------------------------------------------------
TOTAL                 89      0     38      0   100%
