....
----------------------------------------------------------------------
Ran 4 tests in 0.002s

OK
Name               Stmts   Miss Branch BrPart  Cover   Missing
--------------------------------------------------------------
Diplomacy.py          66      0     32      0   100%
TestDiplomacy.py      26      0      2      0   100%
--------------------------------------------------------------
TOTAL                 92      0     34      0   100%