A Germany
B Britain
C China
D Denmark
E Egypt
F France
G [dead]
H [dead]
I Italy
J [dead]
K Kenya
L Liechtenstein
M Mexico
N Nigeria
O Oman
P Poland
Q Qatar
R Romania
S Spain
T Turkey
U Uzbkistan
V Vietnam
W Wales
X Xuehue
Y Yugoslavia
Z Zimbabwe