...
----------------------------------------------------------------------
Ran 3 tests in 0.000s

OK
Name               Stmts   Miss Branch BrPart  Cover   Missing
--------------------------------------------------------------
Diplomacy.py          56      3     44      5    92%   10, 17, 21, 39->32, 69->78
TestDiplomacy.py      21      0      4      1    96%   58->exit
--------------------------------------------------------------
TOTAL                 77      3     48      6    93%
