............
----------------------------------------------------------------------
Ran 12 tests in 0.001s

OK
Name               Stmts   Miss Branch BrPart  Cover   Missing
--------------------------------------------------------------
Diplomacy.py          60      0     32      0   100%
TestDiplomacy.py      54      0      2      0   100%
--------------------------------------------------------------
TOTAL                114      0     34      0   100%