......
----------------------------------------------------------------------
Ran 6 tests in 0.001s

OK
Name               Stmts   Miss Branch BrPart  Cover   Missing
--------------------------------------------------------------
Diplomacy.py          66      2     42      1    97%   44->41, 114-115
TestDiplomacy.py      36      0      4      1    98%   74->exit
--------------------------------------------------------------
TOTAL                102      2     46      2    97%